Medium Data in the Tidyverse
…
sgf <- read_csv("data/stiller_scales_data.csv")

## Parsed with column specification:
## cols(
##   subid = col_character(),
##   item = col_character(),
##   correct = col_double(),
##   age = col_double(),
##   condition = col_character()
## )

sgf

## # A tibble: 588 x 5
##    subid item   correct   age condition
##    <chr> <chr>    <dbl> <dbl> <chr>    
##  1 M22   faces        1  2    Label    
##  2 M22   houses       1  2    Label    
##  3 M22   pasta        0  2    Label    
##  4 M22   beds         0  2    Label    
##  5 T22   beds         0  2.13 Label    
##  6 T22   faces        0  2.13 Label    
##  7 T22   houses       1  2.13 Label    
##  8 T22   pasta        1  2.13 Label    
##  9 T17   pasta        0  2.32 Label    
## 10 T17   faces        0  2.32 Label    
## #  with 578 more rows
…
tidyverse verbs always take the data frame as their first argument, and

because pipes pull out the first argument, the data frame just gets passed through successive operations

so you can read a pipe chain as take this data frame and first do this, then do this, then do that.

This is essentially the huge insight of dplyr: you can chain verbs into readable and efficient sequences of operations over dataframes, provided 1) the verbs all have the same syntax (which they do) and 2) the data all have the same structure (which they do if they are tidy).

OK, so filtering:

sgf %>%
  filter(age > 2, 
         age < 3) 

## # A tibble: 188 x 5
##    subid item   correct   age condition
##    <chr> <chr>    <dbl> <dbl> <chr>    
##  1 T22   beds         0  2.13 Label    
##  2 T22   faces        0  2.13 Label    
##  3 T22   houses       1  2.13 Label    
##  4 T22   pasta        1  2.13 Label    
##  5 T17   pasta        0  2.32 Label    
##  6 T17   faces        0  2.32 Label    
##  7 T17   houses       0  2.32 Label    
##  8 T17   beds         0  2.32 Label    
##  9 M3    faces        0  2.38 Label    
## 10 M3    houses       1  2.38 Label    
## #  with 178 more rows
…
a tidyselect way of getting columns. This is the columns you want to make longer. You can select them by name (e.g.beds, faces, houses, pasta), you can use numbers (e.g., 5:8), or you can use markers like starts_with(...).

a names_to argument. this argument is the name of the column names. in this case, the column names are items, so the missing label for them is item.

a values_to argument. this is the name of the thing in each column, in this case, the accuracy of the response (correct).

Lets try it:

sgf_tidy <- sgf_wide %>% 
  pivot_longer(beds:pasta, 
               names_to = "item", 
               values_to = "correct")
sgf_tidy

## # A tibble: 600 x 6
##    subid   age condition age_group item   correct
##    <chr> <dbl> <chr>     <chr>     <chr>    <dbl>
##  1 C1     4.16 Label     (4,5]     beds         1
##  2 C1     4.16 Label     (4,5]     faces        1
##  3 C1     4.16 Label     (4,5]     houses       1
##  4 C1     4.16 Label     (4,5]     pasta        1
##  5 C10    3.46 Label     (3,4]     beds         1
##  6 C10    3.46 Label     (3,4]     faces        0
##  7 C10    3.46 Label     (3,4]     houses       0
##  8 C10    3.46 Label     (3,4]     pasta        1
##  9 C11    4.22 Label     (4,5]     beds         1
## 10 C11    4.22 Label     (4,5]     faces        1
## #  with 590 more rows
…
